<svg xmlns="http://www.w3.org/2000/svg" width="112" height="94" viewBox="0 0 112 94">
    <g fill="none" fill-rule="evenodd">
        <path fill="#C8D0E0" fill-rule="nonzero" d="M97.94 5.803H69.796c-5.64 0-10.208 4.433-10.208 9.905v11.73c0 5.37 4.412 9.74 9.907 9.893-.065.152-.117.304-.195.456-.993 2.166-2.663 3.888-4.778 5.104 4.543-.177 8.42-2.14 10.116-5.548h23.287c5.639 0 10.208-4.433 10.208-9.905v-11.73c.013-5.472-4.569-9.905-10.195-9.905zm-9.047 9.487c1.07 0 1.828.697 1.828 1.685 0 .975-.757 1.634-1.828 1.66-1.018 0-1.801-.647-1.801-1.685.013-.988.796-1.66 1.801-1.66zm-10.22 0c1.07 0 1.827.697 1.827 1.685 0 .975-.757 1.634-1.827 1.66-1.018 0-1.802-.647-1.802-1.685.013-.988.784-1.66 1.802-1.66zm16.93 11.78c-2.833-2.052-6.605-3.534-11.84-3.534-5.156 0-8.863 1.546-11.76 3.534v-1.938c2.401-1.773 6.108-3.686 11.76-3.686 5.705.026 9.412 1.913 11.84 3.686v1.938z"/>
        <path d="M69.026 60.394c0-.776.722-1.329 1.74-1.329s1.714.553 1.714 1.33c0 .757-.67 1.328-1.74 1.328-1.018 0-1.714-.571-1.714-1.329zM81.193 60.394c0-.776.722-1.329 1.74-1.329s1.714.553 1.714 1.33c0 .757-.67 1.328-1.74 1.328-1.031 0-1.714-.571-1.714-1.329zM93.347 60.394c0-.776.722-1.329 1.74-1.329s1.714.553 1.714 1.33c0 .757-.67 1.328-1.74 1.328-1.018 0-1.714-.571-1.714-1.329z"/>
        <g>
            <path d="M0 35h59v59H0z"/>
            <path fill="#C8D0E0" fill-rule="nonzero" d="M17.962 42.375h20.733c.413 0 .814.14 1.137.399l11.11 8.888c.432.345.683.868.683 1.42v31.724a1.82 1.82 0 0 1-1.82 1.819H9.196a1.82 1.82 0 0 1-1.82-1.82V52.963c0-.483.192-.945.533-1.286l8.768-8.768a1.82 1.82 0 0 1 1.286-.533zm30.615 12.882H10.423v28.32h38.154v-28.32zm-1.832-3.049l-8.481-6.785H18.471l-6.785 6.785h35.06zM23.65 59.583h11.702a1.524 1.524 0 0 1 0 3.049H23.649a1.524 1.524 0 0 1 0-3.049z"/>
        </g>
    </g>
</svg>
