<svg xmlns="http://www.w3.org/2000/svg" width="48" height="48" viewBox="0 0 48 48">
    <path fill="#1E2025" fill-rule="nonzero" d="M31.76 25.775V19.24H16.24v8.591L21.071 23l1.957 1.957L26.985 21l4.775 4.775zm0 1.753l-4.775-4.774-3.08 3.08 2.926 2.926h4.929v-1.232zm-6.683 1.232l-4.006-4.006-4.006 4.006h8.012zM15.74 18h16.52a.74.74 0 0 1 .74.74v10.52a.74.74 0 0 1-.74.74H15.74a.74.74 0 0 1-.74-.74V18.74a.74.74 0 0 1 .74-.74z"/>
</svg>
