<svg xmlns="http://www.w3.org/2000/svg" width="18" height="18" viewBox="0 0 18 18">
    <path fill="#F55151" fill-rule="nonzero" d="M9.707.707l7.586 7.586a1 1 0 0 1 0 1.414l-7.586 7.586a1 1 0 0 1-1.414 0L.707 9.707a1 1 0 0 1 0-1.414L8.293.707a1 1 0 0 1 1.414 0zM8.4 5.4v5h1.24v-5H8.4zm0 6v1.24h1.24V11.4H8.4z"/>
</svg>
