<svg xmlns="http://www.w3.org/2000/svg" width="24" height="16" viewBox="0 0 24 16">
    <g fill="none" fill-rule="evenodd">
        <path fill="#707A89" fill-rule="nonzero" d="M12 13c-3.15 0-6.017-1.506-8.6-4.518a.74.74 0 0 1 0-.964C5.983 4.506 8.85 3 12 3c3.15 0 6.017 1.506 8.6 4.518a.74.74 0 0 1 0 .964C18.017 11.494 15.15 13 12 13zm0-8.76C9.35 4.24 6.907 5.467 4.628 8c2.28 2.533 4.721 3.76 7.372 3.76 2.65 0 5.093-1.227 7.372-3.76-2.28-2.533-4.721-3.76-7.372-3.76zM12 10a2 2 0 1 1 0-4 2 2 0 0 1 0 4z"/>
        <path stroke="#707A89" stroke-linecap="square" d="M24 .912L0 15"/>
    </g>
</svg>
