<svg xmlns="http://www.w3.org/2000/svg" width="24" height="24" viewBox="0 0 24 24">
    <path fill="#1E2025" fill-rule="evenodd" d="M12 0c3.32 0 6.15 1.17 8.49 3.51S24 8.68 24 12c0 3.32-1.17 6.15-3.51 8.49S15.32 24 12 24c-3.32 0-6.15-1.17-8.49-3.51S0 15.32 0 12c0-3.32 1.17-6.15 3.51-8.49S8.68 0 12 0zm3.51 17.224l1.714-1.714-3.51-3.51 3.51-3.51-1.714-1.714-3.51 3.51-3.51-3.51L6.776 8.49l3.51 3.51-3.51 3.51 1.714 1.714 3.51-3.51 3.51 3.51z" opacity=".4"/>
</svg>
