<svg xmlns="http://www.w3.org/2000/svg" width="771" height="530" viewBox="0 0 771 530">
    <g fill="none" fill-rule="evenodd">
        <path fill="#8DD4F7" fill-rule="nonzero" d="M383.15 520H380v-1h7v1h-3.85zm-10.22 0c-2.31-.061-4.62-.137-6.93-.237l.07-.763c2.31.092 4.62.168 6.93.229l-.07.771zm21.07 0v-.758c2.31-.06 4.62-.144 6.93-.242l.07.758c-2.345.083-4.678.166-6.988.227L394 520zm-35.126-1a215.197 215.197 0 0 1-6.874-.758l.126-1.242c2.291.298 4.583.547 6.874.77l-.126 1.23zm48.23 0l-.104-1.227a199.64 199.64 0 0 0 6.862-.773l.138 1.227c-2.283.196-4.601.454-6.896.687V519zm-61.265-1c-2.303-.29-4.605-.611-6.839-.964l.196-1.036c2.302.352 4.547.674 6.804.964l-.161 1.036zm75.322 0l-.161-1.03c2.303-.29 4.605-.62 6.804-.97l.196 1.03c-2.257.28-4.56.578-6.839.898V518zm-89.38-2c-2.307-.347-4.613-.72-6.781-1.111l.254-.889c2.214.382 4.486.756 6.746 1.102l-.22.898zm102.438 0l-.219-.885c2.237-.345 4.498-.717 6.746-1.115l.254.885c-2.249.327-4.532.708-6.78 1.053V516zm-115.508-5a273.844 273.844 0 0 1-6.711-1.216l.312-.784c2.199.424 4.443.831 6.688 1.216l-.29.784zm129.578 0l-.289-.781c2.233-.383 4.49-.781 6.676-1.219l.324.781c-2.221.36-4.478.774-6.722 1.164l.011.055zm-142.637-3a321.028 321.028 0 0 1-6.652-1.955l.382-1.045c2.18.669 4.404 1.328 6.618 1.944l-.348 1.056zm155.697 0l-.349-1.01a261.068 261.068 0 0 0 6.627-1.99l.373 1.01c-2.213.618-4.46 1.288-6.662 1.916l.011.074zm-167.76-5a375.416 375.416 0 0 1-6.589-2.11l.434-.89c2.18.716 4.385 1.423 6.566 2.09l-.41.91zm181.823 0l-.412-.907c2.188-.665 4.388-1.37 6.553-2.093l.447.897c-2.188.704-4.412 1.36-6.6 2.035l.012.068zm-194.887-5a442.2 442.2 0 0 1-6.525-2.192l.51-.808c2.124.737 4.307 1.473 6.49 2.183l-.475.817zm204.953 0l-.478-.819c2.15-.694 4.336-1.433 6.498-2.181l.502.81c-2.174.686-4.372 1.424-6.534 2.128l.012.062zm-217.009-5c-2.172-.989-4.345-2-6.469-3.033l.567-.967a304.86 304.86 0 0 0 6.433 3.011l-.531.989zm231.077-.011l-.546-.986c2.16-.976 4.319-1.984 6.43-3.003l.57.964a287.342 287.342 0 0 1-6.49 3.036l.036-.011zM256.386 487c-2.137-1.036-4.286-2.073-6.386-3.109l.639-.891a774.776 774.776 0 0 0 6.361 3.109l-.614.891zm255.046-.01l-.432-.897c1.526-1.031 3.051-2.062 4.541-3.093l.459.876a263.42 263.42 0 0 1-4.594 3.124l.026-.01zM242.496 479a154.837 154.837 0 0 1-4.496-3.196l.504-.804a256.23 256.23 0 0 0 4.496 3.186l-.504.814zm280.99-1l-.486-.814a227.48 227.48 0 0 0 4.496-3.186l.504.804c-1.484 1.046-2.995 2.12-4.514 3.196zm-292.02-7a252.004 252.004 0 0 1-4.466-3.266l.552-.734a211.03 211.03 0 0 0 4.448 3.248l-.534.752zm304.078 0l-.544-.752a188.888 188.888 0 0 0 4.437-3.248l.563.734c-1.476 1.073-2.97 2.174-4.456 3.238V471zm-315.132-8a184.45 184.45 0 0 1-4.412-3.335l.607-.665a237.337 237.337 0 0 0 4.393 3.317l-.588.683zm325.186 0l-.598-.683c1.47-1.085 2.95-2.197 4.383-3.317l.617.665a326.494 326.494 0 0 1-4.402 3.335zm-335.245-9a193.641 193.641 0 0 1-4.353-4.236l.667-.764a152.727 152.727 0 0 0 4.333 4.184l-.647.816zm345.304 0l-.657-.79c1.47-1.4 2.941-2.831 4.333-4.21l.667.768c-1.451 1.38-2.912 2.81-4.382 4.221l.039.011zm-356.368-9a214.317 214.317 0 0 1-4.289-4.304l.732-.696a212.3 212.3 0 0 0 4.268 4.284l-.711.716zm367.422 0l-.711-.714a212.837 212.837 0 0 0 4.268-4.286l.732.704c-1.433 1.409-2.876 2.857-4.33 4.236l.041.06zm-374.51-10a234.717 234.717 0 0 1-4.201-4.368l.798-.632a164.812 164.812 0 0 0 4.202 4.348l-.798.652zm382.576 0l-.777-.66c1.397-1.418 2.805-2.913 4.202-4.34l.798.631c-1.45 1.437-2.857 2.903-4.265 4.34l.042.029zM181.32 425a231.667 231.667 0 0 1-3.319-4.415l.7-.585a230.256 230.256 0 0 0 3.3 4.406l-.681.594zm403.37-1l-.689-.593a204.498 204.498 0 0 0 3.302-4.407l.698.574a147.18 147.18 0 0 1-3.311 4.426zm-412.433-11a182.64 182.64 0 0 1-3.256-4.477l.763-.523a235.2 235.2 0 0 0 3.237 4.459l-.744.541zm421.488-.027l-.744-.538a199.215 199.215 0 0 0 3.237-4.435l.763.52a138.034 138.034 0 0 1-3.256 4.48v-.027zM166.184 403a257.832 257.832 0 0 1-3.184-4.525l.835-.475a182.027 182.027 0 0 0 3.165 4.48l-.816.52zm433.64-1.027l-.824-.488a181.336 181.336 0 0 0 3.167-4.485l.833.47a155.45 155.45 0 0 1-3.176 4.53v-.027zM158.093 391c-1.031-1.503-2.062-3.05-3.093-4.578l.907-.422c1.031 1.52 2.062 3.058 3.093 4.56l-.907.44zm449.805-.037l-.898-.608a317.897 317.897 0 0 0 3.08-6.355l.92.584a165.923 165.923 0 0 1-3.07 6.416l-.032-.037zM151.254 379a283.225 283.225 0 0 1-2.254-6.48l.754-.52a356.84 356.84 0 0 0 2.246 6.444l-.746.556zm463.492 0l-.746-.552c.77-2.15 1.525-4.31 2.246-6.448l.754.516c-.72 2.15-1.475 4.323-2.254 6.484zm-468.57-12a367.826 367.826 0 0 1-2.176-6.536l.834-.464a309.735 309.735 0 0 0 2.166 6.5l-.825.5zm473.651-1l-.827-.486a343.608 343.608 0 0 0 2.164-6.514l.836.45c-.7 2.191-1.427 4.394-2.173 6.55zM140.08 354a294.26 294.26 0 0 1-2.079-6.601l.93-.399a326.797 326.797 0 0 0 2.07 6.566l-.92.434zm485.842-1l-.921-.421a274.474 274.474 0 0 0 2.07-6.579l.93.386c-.644 2.213-1.317 4.448-2.06 6.614h-.02zm-489.957-12a290.15 290.15 0 0 1-1.964-6.674l1.036-.326c.622 2.21 1.288 4.442 1.964 6.628l-1.036.372zm494.061-1l-1.025-.36c.658-2.16 1.306-4.388 1.92-6.64l1.08.337c-.67 2.263-1.317 4.492-1.975 6.663zm-497.828-11c-.418-2.23-.803-4.493-1.197-6.723l.803-.277c.378 2.23.803 4.482 1.197 6.688l-.803.312zm501.613-2l-.81-.3c.421-2.218.81-4.47 1.19-6.7l.81.266c-.364 2.24-.77 4.505-1.19 6.734zm-505.718-11a347.942 347.942 0 0 1-1.092-6.781l.917-.219c.34 2.245.698 4.513 1.083 6.758l-.908.242zm509.83-1l-.922-.23c.387-2.25.747-4.521 1.078-6.77l.922.208c-.332 2.248-.645 4.543-1.078 6.792zM125.93 302a352.123 352.123 0 0 1-.93-6.85l1.07-.15c.278 2.303.588 4.605.93 6.816l-1.07.184zm514.151 0l-1.081-.184c.335-2.245.638-4.548.919-6.816l1.081.15c-.281 2.28-.616 4.582-.919 6.85zm-516.363-13a252.18 252.18 0 0 1-.718-6.908l1.282-.092c.205 2.303.449 4.605.718 6.908l-1.282.092zm517.931-1l-.649-.115c.13-2.295.247-4.59.35-6.885l.65.092a392.296 392.296 0 0 1-.35 6.908zm-518.455-14c-.081-2.333-.154-4.667-.194-7h.806c0 2.333.113 4.667.194 7h-.806zm519.619-1l-.813-.058c.081-2.314.146-4.628.187-6.942H643c-.04 2.372-.106 4.71-.187 7zm-518.887-13H123v-.448c0-2.184 0-4.368.074-6.552H124c0 2.184-.074 4.368-.074 6.552V260zm518.148 0c0-2.333 0-4.667-.074-7h.926c.046 2.333.074 4.667.074 7h-.926zM123.72 246l-.719-.058c.08-2.314.173-4.628.28-6.942l.72.093c-.137 2.29-.23 4.616-.302 6.907h.021zm518.567 0a446.519 446.519 0 0 0-.286-6.908l.714-.092c.115 2.303.207 4.605.286 6.908l-.714.092zm-517.11-13l-1.176-.115c.247-2.295.518-4.59.824-6.885l1.176.15c-.294 2.294-.576 4.59-.824 6.85zm515.654 0a239.089 239.089 0 0 0-.83-6.85l1.17-.15c.304 2.306.584 4.613.83 6.92l-1.17.08zM127 219l-1-.173c.31-2.302.65-4.605 1-6.827l1 .219a215.71 215.71 0 0 0-1 6.781zm512 0a315.44 315.44 0 0 0-1-6.781l1-.219c.36 2.303.71 4.605 1 6.816l-1 .184zm-509.142-13l-.858-.242c.36-2.249.738-4.52 1.142-6.758l.858.265c-.43 2.237-.79 4.498-1.142 6.735zm506.279 0a292.743 292.743 0 0 0-1.137-6.723l.855-.277a403.91 403.91 0 0 1 1.145 6.758l-.863.242zm-503-14l-1.137-.301c.59-2.237 1.216-4.485 1.864-6.699l1.136.325c-.727 2.213-1.307 4.45-1.864 6.675zm499.72 0a262.595 262.595 0 0 0-1.857-6.664l1.132-.336a265.37 265.37 0 0 1 1.868 6.699l-1.143.301zm-495.888-13l-.969-.361a164.879 164.879 0 0 1 2.04-6.639l.96.396a163.16 163.16 0 0 0-2.03 6.604zm492.045 0a320.007 320.007 0 0 0-2.014-6.603l.976-.397c.706 2.205 1.38 4.433 2.024 6.638l-.986.362zm-487.137-13l-.877-.424c.68-2.188 1.396-4.4 2.123-6.576l.877.459a325.06 325.06 0 0 0-2.123 6.541zm482.243 0a323.69 323.69 0 0 0-2.12-6.539l.88-.461a352.087 352.087 0 0 1 2.12 6.563l-.88.437zM146.8 153l-.8-.5c.713-2.16 1.46-4.353 2.217-6.5l.783.513a274.083 274.083 0 0 0-2.2 6.487zm471.406 0a321.479 321.479 0 0 0-2.206-6.473l.785-.527c.75 2.134 1.491 4.327 2.215 6.509l-.794.491zM152.96 142l-.96-.557a286.708 286.708 0 0 1 3.051-6.443l.949.593a260.792 260.792 0 0 0-3.04 6.407zm460.078 0a277.3 277.3 0 0 0-3.038-6.416l.951-.584a371.213 371.213 0 0 1 3.049 6.44l-.962.56zm-6.919-13c-1.013-1.525-2.025-3.05-3.119-4.53l.86-.47c1.013 1.49 2.117 3.014 3.14 4.548l-.881.452zm-446.25 0l-.869-.442c1.01-1.52 2.07-3.047 3.141-4.558l.859.468a124.73 124.73 0 0 0-3.131 4.488V129zm439.327-11a215.74 215.74 0 0 0-3.196-4.475l.785-.525a164.416 164.416 0 0 1 3.215 4.529l-.804.471zm-432.394 0l-.802-.495c1.05-1.505 2.138-3.01 3.217-4.505l.783.523a342.802 342.802 0 0 0-3.15 4.432l-.048.045zm423.472-12a190.162 190.162 0 0 0-3.274-4.433l.717-.567a173.664 173.664 0 0 1 3.283 4.452l-.726.548zm-414.55 0l-.724-.557a214.68 214.68 0 0 1 3.285-4.443l.715.566a269.54 269.54 0 0 0-3.23 4.388l-.046.046zm407.602-11A194.25 194.25 0 0 0 580 90.631l.657-.631A226.733 226.733 0 0 1 584 94.398l-.674.602zm-400.66 0l-.666-.612A200.578 200.578 0 0 1 185.352 90l.648.621a257.454 257.454 0 0 0-3.292 4.331l-.043.048zm391.568-10A209.525 209.525 0 0 0 570 80.682l.745-.682A239.716 239.716 0 0 1 575 84.328l-.766.672zm-382.468 0l-.766-.662c1.387-1.463 2.826-2.964 4.255-4.338l.745.692c-1.377 1.403-2.795 2.846-4.182 4.298l-.052.01zm372.535-10A239.803 239.803 0 0 0 560 70.75l.679-.75A242.102 242.102 0 0 1 565 74.271l-.699.729zm-362.654 0l-.647-.694A216.02 216.02 0 0 1 205.323 70l.677.756a151.871 151.871 0 0 0-4.303 4.234l-.05.01zm352.717-10A186.812 186.812 0 0 0 550 60.82l.626-.82c1.465 1.375 2.89 2.783 4.374 4.2l-.636.8zm-342.719 0l-.645-.801c1.435-1.41 2.89-2.82 4.383-4.199l.617.823c-1.416 1.356-2.88 2.756-4.306 4.166l-.049.011zm331.776-7A281.464 281.464 0 0 0 539 54.716l.56-.716a246.004 246.004 0 0 1 4.44 3.302l-.58.698zm-320.916-1l-.505-.713A265.748 265.748 0 0 1 226.43 53l.57.713a142.544 142.544 0 0 0-4.449 3.278l-.046.009zm310.959-8A169.849 169.849 0 0 0 529 45.781l.51-.781c1.5 1.054 3.017 2.136 4.49 3.238l-.536.762zm-300.936 0l-.528-.764A196.135 196.135 0 0 1 236.48 45l.52.783c-1.43.99-2.933 2.075-4.399 3.16l-.073.057zm288.992-8a165.353 165.353 0 0 0-4.52-3.144l.462-.856c1.518.995 3.046 2.09 4.538 3.154l-.48.846zm-277.039 0l-.481-.84c1.506-1.08 3.03-2.14 4.545-3.16l.455.85c-1.435.93-2.95 1.99-4.465 3.06l-.054.09zm265.921-7c-2.122-1.064-4.268-2.128-6.402-3.064l.573-.936c2.134.99 4.305 2.032 6.427 3.074l-.598.926zm-255.791 0l-.611-.926c2.126-1.063 4.288-2.127 6.426-3.074l.574.947c-2.028.883-4.154 1.915-6.291 2.957l-.098.096zm12.92-6l-.531-.763A325.125 325.125 0 0 1 273.494 25l.506.78c-2.06.634-4.229 1.389-6.373 2.143l-.097.077zm230.942 0A323.864 323.864 0 0 0 492 25.778l.503-.778c2.17.726 4.363 1.479 6.497 2.24l-.527.76zm-218.998-6l-.475-.854A287.74 287.74 0 0 1 285.561 19l.439.864c-2.088.566-4.283 1.282-6.43 2.015l-.095.121zm207.054 0A299.035 299.035 0 0 0 480 19.858l.448-.858c2.168.692 4.372 1.412 6.552 2.15l-.471.85zm-194.12-5.04l-.409-.94a198.165 198.165 0 0 1 6.625-2.02l.375.96c-2.2.656-4.425 1.343-6.602 2.04l.012-.04zm181.194.04c-2.193-.7-4.421-1.38-6.603-2l.385-1c2.193.64 4.422 1.33 6.615 2l-.397 1zm-168.255-4L305 11.897A230.053 230.053 0 0 1 311.687 10l.313 1.103c-2.229.607-4.47 1.246-6.652 1.897zm155.304 0A318.503 318.503 0 0 0 454 11.107l.325-1.107c2.201.598 4.45 1.24 6.675 1.904L460.652 13zm-142.375-3L318 9.17c2.23-.407 4.493-.83 6.746-1.17l.254.83c-2.264.373-4.517.788-6.746 1.17h.023zm129.446 0c-2.218-.408-4.482-.833-6.723-1.167l.254-.833c2.253.375 4.517.767 6.746 1.175l-.277.825zM333.23 5l-.23-.952A377.88 377.88 0 0 1 339.804 3l.196.952A492.57 492.57 0 0 0 333.23 5zm99.55 0A414.717 414.717 0 0 0 426 3.957l.196-.957c2.306.325 4.544.67 6.804 1.043l-.22.957zm-86.619-2L346 1.876c2.306-.325 4.613-.618 6.862-.876L353 2.124c-2.272.224-4.578.528-6.78.842L346.16 3zm73.633 0A333.248 333.248 0 0 0 413 2.124L413.137 1c2.288.258 4.575.562 6.863.876L419.794 3zm-59.69-1L360 1.324c2.31-.128 4.62-.23 6.93-.324l.07.676c-2.299.04-4.62.162-6.896.283V2zm45.827 0c-2.31-.123-4.62-.226-6.931-.315l.07-.685c2.31.089 4.62.199 6.93.322l-.07.678zM373 1V.138c2.333-.069 4.667-.112 7-.138v.862c-2.345-.043-4.69 0-7 .069V1zm20 0a375.87 375.87 0 0 0-7-.13V0c2.333 0 4.667.07 7 .13V1z"/>
        <path fill="#BDE6FA" d="M147.13 261.777c9.387-5.229 20.489-4.831 30.378-8.479 7.743-2.86 15.473-8.405 16.425-17.268.905-8.392-4.277-16.07-7.57-23.372-1.796-3.984-3.351-8.238-3.257-12.666.008-.544.044-1.088.107-1.628-88.851-19.947-135.714 13.069-154.338 32.013a43.22 43.22 0 0 0-1.535 9.3c-.24 4.16.873 8.287 3.17 11.757a21.584 21.584 0 0 0 9.715 7.443 30.393 30.393 0 0 0 13.2 2.019c5.92-.337 11.68-1.346 17.432.673 9.775 3.493 16.593 12.113 25.697 16.79 8.34 4.307 18.625 6.28 27.521 2.504 9.48-3.97 14.213-14.133 23.056-19.086z"/>
        <path fill="#8DD4F7" d="M32.85 212.341c-.254 6.212-2.446 12.067-4.022 18.036 18.624-18.944 65.487-51.96 154.338-32.013.483-4.233 2.514-8.076 4.794-11.622 2.426-3.79 5.175-7.403 6.925-11.602a18.91 18.91 0 0 0 .885-12.645c-2.528-8.749-10.472-15.19-18.51-18.635-10.727-4.596-22.62-5.747-32.938-11.306-9.32-5.02-17.029-12.719-27.488-15.41a42.389 42.389 0 0 0-27.152 2.213 40.337 40.337 0 0 0-6.221 3.365 26.51 26.51 0 0 0-2.91 2.282c-4.505 4.058-21.62 18.796-33.541 21.642-.939.33-1.884.633-2.802.915-4.754 1.454-9.252 3.13-13.369 5.997a38.083 38.083 0 0 0-9.949 10.188c-2.822 4.253-5.216 9.422-4.86 14.644.268 4.038 2.3 7.645 4.693 10.815 2.681 3.492 5.88 6.601 8.367 10.256a20.919 20.919 0 0 1 3.76 12.88z"/>
        <path fill="#3071D9" fill-rule="nonzero" d="M94.999 222.133s6.57.538 10.056 2.288a32.796 32.796 0 0 1 8.582-.606s1.676-2.96 6.234-4.24c-.067-3.7.47-9.623 3.218-14.737 0 0 0 4.037 1.073 5.787.939 1.615 4.827 5.788 2.414 8.48.268 0 .536.067.737.067 2.625.302 5.224.797 7.777 1.48a5.875 5.875 0 0 0-.134-5.114c-1.475-2.625-4.626-10.431-4.358-14.469.268-4.038 2.011-12.45-.603-14.805-2.213-2.02-9.118-3.432-11.598-5.72a15.926 15.926 0 0 1-2.75 1.547c.068 0 .068 0 .135-.067a5.887 5.887 0 0 1-5.9 3.028c-3.955-.403-4.223-3.903-4.09-5.787l.068.067a17.034 17.034 0 0 1-.872-1.48c-1.274.807-4.76 3.028-6.235 3.163-1.81.202-13.006 3.364-15.889 7.2-2.883 3.836-12.202 17.565-9.587 28.803 2.615 11.239 19.04 10.97 19.04 10.97a2.98 2.98 0 0 0 1.81-.404 8.771 8.771 0 0 0 1.14-3.432 5.519 5.519 0 0 0-.067-1.817l-.201-.202zm-5.028-1.48s-16.225-3.567-4.291-16.556c.603 4.644 4.425 13.056 6.436 16.623a7.808 7.808 0 0 0-2.145-.068z"/>
        <path fill="#114497" d="M125.704 233.91c-5.497-.135-16.023-.337-16.023-.337a2.565 2.565 0 0 1-2.078-1.144c-.403-.605-1.341-1.951-2.146-3.23-3.084 1.144-9.117 0-11.397-1.548a2.507 2.507 0 0 1-1.81.404h-.201c-1.676 1.817-5.296 6.326-4.693 8.614.804 2.961 2.883 6.46 7.174 5.855 4.29-.606 23.8-4.24 28.023-2.961 0 0 2.816-.74.335-4.307a30.895 30.895 0 0 1 2.816-1.346z"/>
        <path fill="#EEF4FC" d="M127.313 219.24c-10.391-1.347-13.676 4.575-13.676 4.575a32.796 32.796 0 0 0-8.582.606c1.341.673 2.213 1.548 2.145 2.692-.067 1.01-.804 1.682-1.877 2.086.805 1.279 1.743 2.625 2.146 3.23a2.565 2.565 0 0 0 2.078 1.144s16.157.27 18.906.404c2.749.135 3.888-1.144 3.888-1.144s7.04-7.2 6.973-8.95c-.067-1.75-1.61-3.298-12-4.644z"/>
        <g fill="#FAD7AE">
            <path d="M125.168 170.651c-7.978-1.48-8.448-7.605-13.275-6.393-4.827 1.211-4.156 6.797-8.581 7.133 0 0 .134 4.576 2.347 7.941-.135 1.817.134 5.384 4.09 5.788a6.027 6.027 0 0 0 5.899-3.029c5.028-2.086 9.386-7.94 9.99-11.305-.068-.068-.27-.068-.47-.135zM94.999 222.133l.067.27c.122.597.145 1.21.067 1.816a8.771 8.771 0 0 1-1.14 3.432c3.084 2.02 12.94 3.432 13.207-.538.269-3.97-12.201-4.98-12.201-4.98z"/>
        </g>
        <g fill="#103570">
            <path d="M133.146 161.364c-1.207-4.98-9.118-5.047-9.118-5.047-1.944-2.086-8.715-5.653-12.872-4.913-4.157.74-6.771 3.23-9.05 10.027-2.28 6.797 1.206 10.028 1.206 10.028 4.425-.404 3.754-5.923 8.581-7.134 4.827-1.211 5.23 4.913 13.275 6.393 8.045 1.48 9.185-4.374 7.978-9.354zM133.012 238.553a10.438 10.438 0 0 0-3.956-4.441h-.536c-.872-.068-2.816-.135-2.816-.135-1.475.673-2.816 1.346-2.816 1.346 1.61 2.288 1.073 3.365.403 3.903.765.562 1.63.973 2.547 1.212 1.61.403 5.9 3.768 6.906 3.163 1.005-.606 2.145-1.414.268-5.048zM94.597 244.745c.469 3.163 3.955.74 4.357 0 .268-.471 1.61-2.221 2.48-3.365-3.083.47-5.63.942-6.972 1.144-.018.743.027 1.486.135 2.22z"/>
        </g>
        <g fill="#1E2025" opacity=".2">
            <path fill-rule="nonzero" d="M140.386 231.487a17.14 17.14 0 0 0-3.888-3.095c-1.944 2.288-4.09 4.508-4.09 4.508s-1.005 1.144-3.352 1.212h-.536c-.872-.068-2.816-.135-2.816-.135-5.497-.134-16.023-.336-16.023-.336a2.565 2.565 0 0 1-2.078-1.144c-.403-.606-1.341-1.952-2.146-3.23-3.084 1.143-9.117 0-11.397-1.548a2.507 2.507 0 0 1-1.81.403h-.201c-.268.27-.603.673-.939 1.077.872.135 2.213.202 2.883-.336l.805.403s-2.012 3.23-2.012 3.433c0 .201-.268.74.872.807 1.14.067 14.079-.27 14.079-.27s-.134 1.212 2.413 1.212h11.666l1.072.942c1.61 2.288 1.073 3.365.403 3.904a2.679 2.679 0 0 1-.738.403c-3.017-.874-13.542.606-21.051 1.817-3.084.471-5.632.943-6.972 1.144h-.068c-4.29.673-6.436-2.893-7.173-5.854-.47-1.885 1.81-5.182 3.62-7.336-4.559.942-12.403 2.961-12.134 6.393.402 4.779 11.397 5.99 11.799 7.538.402 1.548 1.006 4.172 5.296 4.576 4.291.404 13.14 1.548 25.41 0 12.268-1.548 14.212-2.557 16.09-7.403 1.877-4.845 6.436-5.45 3.016-9.085zm-41.432 13.258c-.402.74-3.955 3.163-4.357 0a9.167 9.167 0 0 1-.067-1.885 39.567 39.567 0 0 1 6.033-.269c-.737.942-1.408 1.884-1.609 2.154zm33.79-1.212c-1.073.606-5.297-2.759-6.906-3.163a7.44 7.44 0 0 1-2.078-.874c1.14-1.616.67-4.106.47-4.98-.738.336-1.275.605-1.409.673.134-.068.939-.472 1.945-.943a35.4 35.4 0 0 0 5.162.337 11.434 11.434 0 0 1 3.017 3.836c1.944 3.768.871 4.509-.201 5.114z"/>
            <path d="M124.162 227.247c-.067.875.872 1.683 2.146 1.818 1.273.134 2.346-.472 2.48-1.346.134-.875-.871-1.683-2.145-1.817-1.274-.135-2.347.47-2.48 1.345zM111.96 186.062a11.378 11.378 0 0 0 8.85-3.903 10.517 10.517 0 0 1-2.48-1.48 15.926 15.926 0 0 1-2.75 1.547 8.685 8.685 0 0 1-5.027.606 7.562 7.562 0 0 1-4.76-3.298 17.034 17.034 0 0 1-.872-1.48c0-.135-1.006 8.008 7.04 8.008zM124.564 204.097c.336-2.624.403-10.229.403-10.229-.269 2.221-1.878 11.037-1.878 11.037s0 3.298.805 5.25c.134-2.222.47-4.577.67-6.058zM87.222 209.818c-.02-2.647.25-5.287.804-7.874.67-2.22 0-5.653 0-5.653.134 1.75-2.346 7.874-2.346 7.874.339 1.928.855 3.82 1.542 5.653zM105.39 229.2c0 .036.03.066.067.066h.269c2.748 4.51 3.218 3.836 3.218 3.836l4.76-9.287a32.796 32.796 0 0 0-8.582.606c1.341.673 2.213 1.548 2.146 2.692a2.58 2.58 0 0 1-1.878 2.086zM96.608 222.268a42.42 42.42 0 0 0-1.61-.202l.068.269c.122.598.145 1.212.067 1.817a8.771 8.771 0 0 1-1.14 3.432c1.676-1.144 2.347-4.105 2.615-5.316z"/>
        </g>
        <g>
            <g transform="translate(0 96.019)">
                <path fill="#103570" d="M78.882 66.86L92.76 80.681l-4.016-13.823z"/>
                <path fill="#103570" d="M0 7.47v54.443c.004 3.938 3.183 7.13 7.106 7.133H87.29c3.923-.003 7.103-3.195 7.106-7.133V7.47H0z"/>
                <ellipse cx="8.179" cy="2.692" fill="#8DD4F7" rx="2.346" ry="2.355"/>
                <ellipse cx="15.42" cy="2.692" fill="#8DD4F7" rx="2.346" ry="2.355"/>
                <path fill="#8DD4F7" d="M22.66 5.115a2.378 2.378 0 0 0 2.347-2.356A2.35 2.35 0 0 0 22.66.404a2.35 2.35 0 0 0-2.346 2.355c-.015.63.227 1.237.67 1.682a2.288 2.288 0 0 0 1.676.674z"/>
            </g>
            <path fill="#BDE6FA" fill-rule="nonzero" d="M87.289 94H7.106C3.183 94.004.004 97.195 0 101.133v2.356h94.396v-2.356a7.107 7.107 0 0 0-2.07-5.056A7.053 7.053 0 0 0 87.289 94zm-79.11 7.133a2.378 2.378 0 0 1-2.346-2.355 2.35 2.35 0 0 1 2.346-2.355 2.35 2.35 0 0 1 2.347 2.355 2.346 2.346 0 0 1-.684 1.67c-.44.442-1.04.69-1.663.685zm7.24 0a2.378 2.378 0 0 1-2.346-2.355 2.35 2.35 0 0 1 2.347-2.355 2.35 2.35 0 0 1 2.346 2.355 2.378 2.378 0 0 1-2.346 2.355zm7.241 0a2.378 2.378 0 0 1-2.346-2.355 2.35 2.35 0 0 1 2.346-2.355 2.35 2.35 0 0 1 2.347 2.355 2.378 2.378 0 0 1-2.347 2.355z"/>
            <g fill="#3071D9">
                <path d="M2.48 110.555h9.453v47.377H2.48zM73.01 108.2h18.905v52.087H73.01z"/>
            </g>
            <path fill="#BDE6FA" fill-rule="nonzero" d="M68.584 160.153l-.134-.135V108.2H16.828l-.134-.135-.135.135-.134.134.134.135v51.818h51.623l.134.135.268-.27zm-.603-51.55v50.944L17.23 108.603h50.75zm-51.02 51.28V108.94l50.752 50.943H16.962z"/>
        </g>
        <g>
            <path fill="#8DD4F7" d="M562.696 253.665c.71.607 1.493 1.124 2.33 1.54 23.44 5.477 97.487 20.539 161.812 14.927a37.79 37.79 0 0 1 .882-4.604 21.54 21.54 0 0 1 3.777-7.259 53.276 53.276 0 0 0 4.262-6.049 19.646 19.646 0 0 0 2.189-6.976c.61-5.136.1-10.343-1.495-15.263-1.42-4.2-4.357-6.634-7.824-8.65-3.63-2.104-7.798-4.033-9.596-8.408-3.252-7.937 1.818-17.703-3.01-25.177-4.127-6.398-12.423-7.097-18.563-9.806a20.572 20.572 0 0 1-4.93-2.916c-1.865-1.533-3.252-3.576-4.794-5.471-3.09-3.798-6.942-5.511-11.494-6.163a117.066 117.066 0 0 0-14.955-.982 52.263 52.263 0 0 0-14.934 1.674c-4.869 1.344-9.292 4.032-13.972 6.049-5.145 2.184-10.518 2.883-15.952 3.038-9.016.248-18.18-.632-26.832 3.125a25.525 25.525 0 0 0-9.333 6.72c-2.976 3.516-4.276 7.737-4.814 12.414-.357 3.038-.586 6.11-1.664 8.986a36.851 36.851 0 0 1-4.12 7.434c-2.936 4.402-5.576 8.844-7.407 13.952a53.847 53.847 0 0 0-3.044 15.895c-.141 4.329.162 9.074 3.481 11.97z"/>
            <path fill="#BDE6FA" d="M565.026 255.17c2.694 1.345 5.744 1.802 8.505 2.77a14.956 14.956 0 0 1 8.12 6.627c3.683 6.21 4.384 14.114 6.37 21.09a31.988 31.988 0 0 0 4.202 9.624c2.498 3.576 6.06 5.767 9.938 7.172a84.075 84.075 0 0 0 14.713 3.542c5.447.915 10.949 1.463 16.47 1.64 3.878.116 7.759.049 11.642-.202 0 0 6.693.034 16.288-3.166 7.245-2.412 4.653-6.768 17.507-9.322 2.195-1.122 4.963-1.182 7.306-1.586 2.835-.497 5.676-.981 8.51-1.472 4.936-.853 9.92-1.532 14.814-2.688 3.663-.847 7.407-2.063 10.552-4.409 3.454-2.574 5.386-6.304 6.228-10.753.25-1.345.424-2.642.62-3.966-64.298 5.64-138.346-9.423-161.785-14.9z"/>
            <path fill="#E0FF16" d="M557.532 253.276s-.027-.007 0 0z"/>
            <g>
                <g fill="#3071D9">
                    <path d="M637.667 207.09c4.04-5.445 25.52-1.21 25.52-1.21.403.067-10.303-10.015-14.41-10.35-4.108-.337-22.557 1.68-21.21 3.494 1.346 1.815 10.032 7.864 10.1 8.065zM686.08 248.49s-8.08-15.794-17.44-18.886c.135 1.21-3.299 14.786-3.77 15.459-1.616-.202-10.908-3.563-10.908-3.563l-9.899 3.831s-6.531-11.694-6.868-11.963c0 0-17.44 8.536-18.853 11.627-.741 1.613-2.626 5.243-4.31 8.334 11.11.27 29.29 1.21 29.29 1.21s6.869-.336 6.397 8.737v2.823c4.781-1.546 19.123 2.285 19.325 2.352.202.068 1.684 10.015 1.684 10.015l.471 2.285s16.43-1.008 18.584-4.033c2.02-3.091-3.703-28.228-3.703-28.228z"/>
                </g>
                <g fill="#114497">
                    <path d="M660.762 227.588l-6.598 12.703-11.515-11.695s-4.713 3.63-5.386 4.84c.336.268 6.868 11.963 6.868 11.963l9.898-3.831s9.292 3.36 10.908 3.562c.539-.672 3.905-14.249 3.77-15.458-.875-.27-7.945-2.084-7.945-2.084zM648.844 195.53c4.108.335 14.746 10.417 14.41 10.35l5.79.403s-1.952-12.568-7.474-14.786c-5.521-2.218-13.87-3.294-19.93-.807a34.126 34.126 0 0 0-2.829 5.444 71.66 71.66 0 0 1 10.033-.605z"/>
                </g>
                <path fill="#EEF4FC" d="M649.652 276.315l.067-13.039c.472-9.073-6.396-8.737-6.396-8.737s-24.577-1.21-34.072-1.277c-6.396.135-5.117 7.662-5.117 7.662s1.212 11.829 2.424 16.466c.74 3.697 4.916 3.764 4.916 3.764s25.452.672 31.512 1.479a11.32 11.32 0 0 0 3.03 0c.27-.068 2.087.201 4.646-2.42.874-.9 1.796-1.752 2.76-2.554-1.885-.605-3.164-1.075-3.77-1.344z"/>
                <g fill="#FAD7AE">
                    <path d="M643.929 229.873l10.167 10.35 6.128-11.761a6.172 6.172 0 0 1-2.357-2.89c8.619-3.697 5.32-19.693 5.32-19.693s-21.48-4.234-25.52 1.21c0 0-1.212 14.652 10.908 18.483-.606 1.21-1.886 2.89-4.646 4.301zM670.66 278.466s-1.48-10.015-1.683-10.015c-.202 0-14.544-3.898-19.325-2.352l-.067 10.216a53.472 53.472 0 0 0 21.277 3.428l-.202-1.277z"/>
                </g>
                <path fill="#103570" d="M669.044 206.283l-5.79-.404s2.154 10.552-1.616 16.534c8.012-5.847 7.406-16.13 7.406-16.13z"/>
                <g fill="#1E2025" opacity=".2">
                    <path d="M626.354 266.032c-2.154-.067-3.972 1.075-4.04 2.554-.067 1.478 1.684 2.823 3.838 2.89 2.155.067 3.973-1.075 4.04-2.554.068-1.479-1.683-2.756-3.838-2.89zM660.224 228.529a6.172 6.172 0 0 1-2.357-2.89c-1.86.734-3.88.966-5.858.672a18.277 18.277 0 0 1-3.434-.74 6.137 6.137 0 0 1-1.482 2.017c2.694 1.68 8.148 4.234 13.13.941zM653.019 265.696c6.06.067 15.756 2.688 15.958 2.688l7.474-.403-3.03-17.407-.673 15.122-4.04.94s-11.38-2.15-15.487-1.007l1.481-22.919 9.427 2.084c-2.76-.74-10.1-3.36-10.1-3.36l-9.898 3.83 9.292-2.083-.404 22.515zM668.977 268.451a.978.978 0 0 0-.404-.067l-.404 11.426c.875 0 1.75 0 2.693-.067l-.269-1.277c.067 0-1.414-10.015-1.616-10.015zM649.652 276.315v3.764l2.491-1.882.472.134c.27-.269.539-.47.808-.74a31.93 31.93 0 0 1-3.77-1.276zM628.711 245.331l-2.424 8.402c.808 0 1.616.067 2.424.067v-8.469z"/>
                    <path d="M691.568 272.027a23.958 23.958 0 0 0-1.461-.444c.195 2.507.148 4.416-.324 5.135-2.154 3.025-18.584 4.033-18.584 4.033l-.471-2.285s-1.172-7.87-1.576-9.652h-.06c.404 1.781 1.568 9.658 1.568 9.658l.202 1.277c-.942.068-1.818.068-2.693.068a54.682 54.682 0 0 1-14.766-2.171v.033h.054a35.238 35.238 0 0 0-2.761 2.554c-2.559 2.621-4.377 2.353-4.646 2.42a11.32 11.32 0 0 1-3.03 0c-6.06-.807-31.513-1.479-31.513-1.479s-4.175-.067-4.915-3.764a33.948 33.948 0 0 1-.451-2.016c-1.744 2.689-2.02 5.195 2.02 6.083 9.73 2.137 39.276 3.568 42.622 1.976 3.347-1.593 1.105-4.261 6.37-3.327 5.266.934 13.568 2.876 22.665 1.344 9.097-1.532 19.09-6.97 11.75-9.443z"/>
                </g>
            </g>
            <g>
                <g transform="translate(672.815 132.688)">
                    <path fill="#103570" d="M7.299 66.712L2.592 86.828 21.015 68.58z"/>
                    <path fill="#103570" d="M.438 7.467v55.985c.01 4.042 3.29 7.315 7.34 7.326h82.888c4.049-.01 7.328-3.284 7.34-7.326V7.467H.437z"/>
                    <ellipse cx="8.922" cy="2.561" fill="#8DD4F7" rx="2.424" ry="2.42"/>
                    <ellipse cx="16.396" cy="2.561" fill="#8DD4F7" rx="2.424" ry="2.42"/>
                    <path fill="#8DD4F7" d="M23.803 4.98a2.422 2.422 0 0 0 2.424-2.42A2.422 2.422 0 0 0 23.803.142a2.422 2.422 0 0 0-1.716 4.133 2.42 2.42 0 0 0 1.716.706z"/>
                </g>
                <path fill="#BDE6FA" fill-rule="nonzero" d="M763.48 130.41h-82.888c-4.049.011-7.328 3.284-7.34 7.326v2.42h97.501v-2.42a7.238 7.238 0 0 0-2.102-5.18 7.265 7.265 0 0 0-5.17-2.146zm-81.743 7.259a2.422 2.422 0 0 1-2.424-2.42 2.422 2.422 0 0 1 2.424-2.42 2.422 2.422 0 0 1 1.716 4.133 2.42 2.42 0 0 1-1.716.707zm7.474 0a2.422 2.422 0 0 1-2.424-2.42 2.422 2.422 0 0 1 2.424-2.42 2.422 2.422 0 0 1 1.716 4.133 2.42 2.42 0 0 1-1.716.707zm7.407 0a2.422 2.422 0 0 1-2.424-2.42 2.422 2.422 0 0 1 2.424-2.42 2.422 2.422 0 0 1 2.424 2.42 2.363 2.363 0 0 1-.694 1.727 2.372 2.372 0 0 1-1.73.693z"/>
                <g fill="#3071D9">
                    <path d="M679.313 160.99h53.598v4.84h-53.598zM706.246 175.91h31.714v4.84h-31.714z"/>
                </g>
                <g fill="#114497">
                    <path d="M711.095 153.597h43.902v4.84h-43.902zM679.313 175.91h24.375v4.84h-24.375z"/>
                </g>
                <g fill="#BDE6FA">
                    <path d="M679.313 146.137h48.75v4.84h-48.75zM735.672 160.99h12.188v4.84h-12.188z"/>
                </g>
                <g fill="#8DD4F7">
                    <path d="M679.313 153.597h29.223v4.84h-29.223zM679.313 168.45h63.362v4.84h-63.362zM679.313 183.371h43.902v4.84h-43.902z"/>
                </g>
            </g>
        </g>
        <g>
            <path fill="#8DD4F7" d="M252.526 475.233a45.222 45.222 0 0 0 6.922 3.227c18.023-12.693 53.86-30.692 110.732-30.132 61.985.615 102.144 22.24 120.49 34.325 3.978-2.627 7.022-6.752 5.893-11.809-1.297-5.806-7.123-9.607-12.049-12.091a110.507 110.507 0 0 0-21.954-8.014c-7.03-1.85-14.972-4.321-18.48-11.363-3.83-7.676 1.949-14.779 6.72-20.322a274.948 274.948 0 0 0 7.829-9.377c2.325-2.903 4.758-5.793 6.653-9.007 2.815-4.766 4.757-11.551-.27-15.616-3.655-2.957-8.984-2.579-13.385-2.586-5.255 0-12.096-.148-14.213-6.076-1.156-3.274-.242-6.906.51-10.167.713-3.1 1.553-6.3 1.29-9.513-.463-5.685-4.529-10.343-9.407-12.895-6.236-3.248-13.494-2.789-20.073-.919-7.392 2.107-14.542 5.678-21.202 9.513-6.659 3.835-12.566 8.777-19.488 11.896-7.19 3.268-14.904 3.22-22.438 1.209-7.392-1.985-14.333-5.401-21.37-8.379-5.772-2.444-12.713-5.84-19.165-4.645-6.048 1.121-8.373 6.752-8.474 12.389-.12 6.502 2.79 14.056-.846 20.058-4.194 6.934-13.548 5.435-20.281 4.868-6.048-.5-13.528.102-16.713 6.245-2.896 5.57 2.077 11.653 5.423 15.792a54.285 54.285 0 0 0 25.254 17.405l-.074.04c.425.065.838.188 1.23.365h.1c.722.216 1.448.419 2.178.608.197.129.381.276.55.439 1.66 1.627 1.056 4.287-.154 5.981-2.284 3.194-6.773 3.916-10.261 5.057a134.417 134.417 0 0 0-21.027 8.939 132.27 132.27 0 0 0-10.335 6.076c-2.406 1.567-5.208 3.227-6.56 5.894-2.674 5.3 2.232 10.066 6.445 12.585z"/>
            <path fill="#BDE6FA" d="M370.18 448.328c-56.871-.56-92.736 17.44-110.732 30.132l3.064 1.161a182.635 182.635 0 0 0 11.324 3.896 182.067 182.067 0 0 0 12.17 3.28c3.118.723 6.249 1.351 9.038 2.992a8.517 8.517 0 0 1 3.212 3.01c1.001 1.844.49 3.66-.45 5.402-1.432 2.7-2.057 5.232-1.217 8.23 1.74 6.191 7.5 10.56 12.721 13.74 11.518 7.02 25.2 9.303 38.486 9.58 15.187.317 30.462-1.661 45.46-3.87a488.768 488.768 0 0 0 25.234-4.415c7.755-1.573 15.685-3.051 23.245-5.434 5.376-1.682 10.987-4.389 13.52-9.736.74-1.566 1.136-3.274 1.855-4.848a11.921 11.921 0 0 1 3.925-4.59c3.11-2.276 6.72-4.018 10.174-5.672 3.454-1.654 7.15-3.126 10.812-4.496a47.228 47.228 0 0 0 7.936-3.599c.242-.141.478-.29.713-.445-18.366-12.078-58.505-33.703-120.49-34.318z"/>
            <path fill="#3071D9" d="M401.106 424.442c1.142-5.199-5.712-12.963-5.712-12.963-9.543 12.085-19.085 10.6-19.085 10.6s-.941 6.144-7.93 6.211c-6.989.068-6.653-7.156-6.653-7.156-5.577.675-17.404-6.954-17.404-6.954l-8.804 12.355 13.037 10.397c0 4.253 6.048 14.516 6.048 14.516v5.67l11.559-.27s5.846.203 7.93 5.74c9.407-2.836 13.036-11.343 13.036-11.343s-3.629-2.43-4.166-3.848c-.538-1.418-.068-6.617-.068-6.617 2.218-4.456 18.212-16.338 18.212-16.338z"/>
            <path fill="#114497" fill-rule="nonzero" d="M413.806 477.98s-5.98-3.375-8.601-5.265c-2.621-1.89-12.701-7.022-14.717-8.44-2.016-1.418-3.629-6.751-3.965-8.169a9.596 9.596 0 0 0-.94-2.16 21.278 21.278 0 0 1-11.492 8.641c.067.203.135.338.202.54l1.075 2.296 8.87-1.08s3.159-.203 2.218 1.755c-.94 1.958-8.467 9.655-8.467 9.655s-1.143.945-4.503 1.147c-.537 0-1.41.068-2.553.068-3.562.067-9.61 0-14.247 0a8.41 8.41 0 0 0-1.41 7.291 27.282 27.282 0 0 1-2.89-.337c-1.076 1.08-2.42 2.835-2.487 4.86-.134 3.174 3.427-.607 5.981-1.282 1.478-.405 8.938-1.418 14.851-2.228 5.645.405 11.021.945 11.693 1.418 1.478 1.08 4.234 7.697 5.98 6.211 1.748-1.485 2.554-9.587-1.142-12.422 0 0-1.545-.135-3.897-.135a33.717 33.717 0 0 1-5.981-1.216c2.486-1.485 7.123-3.915 9.878-2.903 4.032 1.418 9.476 7.63 9.207 8.777 0 0 9.34-.81 12.365-3.24 3.024-2.431 4.502-1.959 4.838-2.431.47-.338.134-1.35.134-1.35zm-56.044 6.55c1.344.067 4.032.202 7.056.405-3.092-.135-5.712-.338-7.056-.406z"/>
            <path fill="#EEF4FC" d="M342.843 457.389l23.251-.54s6.25.202 8.132 6.279l1.075 2.295 8.87-1.08s3.159-.203 2.218 1.755c-.941 1.958-8.467 9.655-8.467 9.655s-1.143.945-4.503 1.147c-3.36.203-23.117 0-23.117 0s-2.688 0-5.107-3.24c-2.419-3.241-7.056-12.355-7.056-12.355s-2.688-3.714 4.704-3.916z"/>
            <g fill="#FAD7AE">
                <path d="M371.202 417.96c4.156-1.187 7.134-4.853 7.459-9.181.47-5.739-.47-10.195-9.543-11.343-9.072-1.147-10.819 3.781-11.29 9.587-.383 4.701 2.39 9.086 6.788 10.735 0 1.215-.47 3.038-3.024 3.376 0 0-.336 7.291 6.653 7.156 6.989-.135 7.93-6.211 7.93-6.211s-4.301-.54-4.973-4.118zM350.235 476.968a5.244 5.244 0 0 1-2.217-.675c-1.344 1.08-2.756 2.7-2.285 5.266.605 1.823 6.585 2.498 9.475 2.768a8.003 8.003 0 0 1 1.411-7.292c-3.629 0-6.384-.067-6.384-.067zM387.33 476.36c-2.823-1.012-7.392 1.35-9.879 2.903 1.953.585 3.955.992 5.981 1.216 1.008 0 1.814 0 2.486.067 1.097.04 2.103.62 2.688 1.553a10.408 10.408 0 0 1 1.277 4.996c4.503.675 6.72-1.958 6.72-1.958.202-1.148-5.241-7.359-9.273-8.777zM419.25 389.942c-7.728 2.296-19.488 18.23-22.848 22.888a33.82 33.82 0 0 1 3.158 4.86c6.25-7.156 19.757-17.89 23.386-20.389 4.57-3.105 5.443-10.06-3.696-7.359zM317.98 393.656c-3.562.675-6.922 2.565-2.218 8.304 3.83 4.658 17.539 14.178 23.856 18.836l4.368-6.144c-5.914-5.536-23.117-21.537-26.007-20.996z"/>
            </g>
            <path fill="#103570" d="M363.944 419.986a3.684 3.684 0 0 0 .74-2.228c-4.4-1.65-7.172-6.034-6.788-10.735.47-5.738 2.285-10.667 11.29-9.587 9.004 1.08 10.012 5.536 9.542 11.343a10.507 10.507 0 0 1-7.46 9.182c.673 3.578 5.04 4.118 5.04 4.118.76.088 1.527.088 2.286 0 2.62-1.283 4.704-3.983 5.443-5.199 1.277-2.093.067-5.063 3.36-10.6 3.293-5.535-2.352-10.937-5.712-16.203s-7.997-4.726-18.749-2.228c-10.752 2.498-8.602 13.706-9.206 16.811-.605 3.106-4.032 5.064-1.479 11.14 2.554 6.076 11.693 4.186 11.693 4.186z"/>
            <g fill="#1E2025" opacity=".2">
                <path d="M357.493 470.352c1.68 0 3.091-1.08 3.091-2.363s-1.344-2.363-3.091-2.363-3.091 1.08-3.091 2.363c0 1.282 1.41 2.363 3.09 2.363zM373.083 420.864a4.558 4.558 0 0 1-1.881-2.836c-1.247.342-2.54.478-3.83.405a8.702 8.702 0 0 1-2.689-.607 3.694 3.694 0 0 1-.336 1.62 15.707 15.707 0 0 0 8.736 1.418zM383.634 431.936l-.807 8.98a19.023 19.023 0 0 1 2.755-3.444c-1.344-2.025-1.948-5.536-1.948-5.536zM352.251 428.29s-3.158 1.823-3.965 3.578c-.47 1.013-2.083 1.688-3.561 1.958l3.83 3.039c0 .135.067-5.874 3.696-8.575zM384.104 464.41l-8.87 1.08 2.352 9.858s7.459-7.63 8.198-9.25c.171-.428.218-.896.134-1.35a3.815 3.815 0 0 0-1.814-.338zM374.293 463.263c2.15-.473 9.139-2.026 13.305-3.849-.537-1.418-.873-2.633-1.075-3.24a9.596 9.596 0 0 0-.94-2.16 21.278 21.278 0 0 1-11.492 8.64c.025.215.093.422.202.609z"/>
                <path d="M356.62 477.035c-.068.135-.202.27-.27.405.066-.15.157-.286.27-.405-3.63 0-6.318-.067-6.318-.067a3.909 3.909 0 0 1-1.21-.27c-.2.27-.335.675 1.48.81 2.15.068 16.06-.068 21.1-.135-.269-.068-.47-.203-.74-.27.202.067.471.202.74.27l5.846 1.89c.74.203 1.412.405 2.084.54a90.444 90.444 0 0 1 9.408-2.633 5.74 5.74 0 0 0-1.613-.742c-.135-.068-.269-.068-.403-.135l.067-.135s3.763-3.781 7.795-4.321c0 0 1.747-.743-.94-2.228-2.42-1.35-6.654-4.051-7.662-4.726.336.27.47.675.135 1.35-.941 1.958-8.467 9.655-8.467 9.655s-1.143.945-4.503 1.147c-.537 0-1.411.068-2.553.068-3.562 0-9.61 0-14.247-.068zM401.778 415.395l-4.57-3.578c-.269.405-.538.742-.74 1.08a33.82 33.82 0 0 1 3.16 4.861 32.782 32.782 0 0 1 2.15-2.363zM343.918 414.652c-.537-.472-1.142-1.08-1.814-1.755-.538 1.283-2.352 5.334-3.226 7.36.237.162.462.343.672.54l4.368-6.145z"/>
                <path fill-rule="nonzero" d="M440.955 478.048a3.576 3.576 0 0 0-2.957-2.903c-2.083-.405-4.368.27-6.384.54-2.352.27-4.704.405-6.988.473a62.512 62.512 0 0 1-14.18-1.553 54.153 54.153 0 0 1-4.435-1.215c2.823 1.89 7.863 4.726 7.863 4.726s.403 1.012 0 1.485c-.404.473-1.748 0-4.839 2.43s-12.365 3.241-12.365 3.241c.202-.81-2.486-4.118-5.51-6.549.067.068 3.024 3.781 3.494 7.967a8.137 8.137 0 0 1-4.704.54c.068 2.633-.537 5.131-1.478 5.941-1.747 1.486-4.502-5.198-5.98-6.211-.673-.473-6.049-1.013-11.694-1.418a970.322 970.322 0 0 0-13.977-.878c-.135 0-.672-.067-1.479-.135a27.282 27.282 0 0 1-2.89-.337c-2.889-.405-6.182-1.08-6.585-2.43-.47-2.566 1.008-4.186 2.285-5.267a9.417 9.417 0 0 1-2.554-2.093c-5.577.81-11.155 1.553-16.8 2.363-2.486.338-4.905.675-7.392 1.08-1.155.183-2.3.431-3.427.743-1.018.203-2.01.52-2.957.945a2.03 2.03 0 0 0-.47 3.308c1.277 1.486 3.562 1.013 5.309.946a84.897 84.897 0 0 1 14.918.607c2.15.27 4.637.54 5.712 2.701.807 1.755.874 3.646 2.487 4.929 1.612 1.282 3.561 1.89 5.376 2.565 2.101.736 4.259 1.3 6.45 1.688a71.283 71.283 0 0 0 13.172 1.08c4.502 0 9.072-.337 13.574-.675 4.8-.292 9.578-.855 14.314-1.688 4.771-.945 9.34-2.565 13.978-4.118l14.313-4.861c4.839-1.62 9.61-3.24 14.448-4.861 1.21-.675 2.621-1.418 2.352-3.106zm-85.075 9.587c-2.554.675-6.115 4.456-5.98 1.283a7.044 7.044 0 0 1 1.814-4.118 52.235 52.235 0 0 0 10.416 1.822c-3.024.405-5.51.81-6.25 1.013zm13.776-2.093c.202 0 .403-.067.672-.067a2.509 2.509 0 0 0-.672.067z"/>
            </g>
            <g>
                <path fill="#BDE6FA" fill-rule="nonzero" d="M418.242 283.203h-95.559c-4.639 0-8.4 3.778-8.4 8.439v2.835H426.71v-2.835c-.033-4.674-3.816-8.443-8.467-8.44zm-94.215 8.439a2.829 2.829 0 0 1-2.822-2.836 2.829 2.829 0 0 1 2.822-2.835 2.829 2.829 0 0 1 2.823 2.835 2.85 2.85 0 0 1-2.823 2.836zm8.602 0a2.829 2.829 0 0 1-2.823-2.836 2.829 2.829 0 0 1 2.823-2.835 2.829 2.829 0 0 1 2.822 2.835 2.85 2.85 0 0 1-2.822 2.836zm8.601 0a2.829 2.829 0 0 1-2.822-2.836 2.829 2.829 0 0 1 2.822-2.835 2.829 2.829 0 0 1 2.823 2.835 2.85 2.85 0 0 1-2.823 2.836z"/>
                <path fill="#8DD4F7" d="M324.128 291.642a2.829 2.829 0 0 0 2.822-2.836 2.829 2.829 0 0 0-2.822-2.835 2.829 2.829 0 0 0-2.822 2.835 2.85 2.85 0 0 0 2.822 2.836zM332.73 291.642c1.141 0 2.17-.691 2.607-1.75a2.845 2.845 0 0 0-.612-3.09 2.813 2.813 0 0 0-3.075-.616 2.836 2.836 0 0 0-1.743 2.62 2.85 2.85 0 0 0 2.823 2.836zM341.331 291.642a2.829 2.829 0 0 0 2.823-2.836 2.829 2.829 0 0 0-2.823-2.835 2.829 2.829 0 0 0-2.822 2.835 2.85 2.85 0 0 0 2.822 2.836z"/>
                <path fill="#103570" d="M364.119 364.537l6.343 17.121 6.344-17.121z"/>
                <path fill="#103570" d="M314.283 294.477v64.949c0 4.66 3.761 8.44 8.4 8.44h95.559c4.639 0 8.4-3.78 8.4-8.44v-64.949H314.283z"/>
                <g fill="#BDE6FA">
                    <path fill-rule="nonzero" d="M414.142 302.714H400.03a2.85 2.85 0 0 0-2.822 2.836v11.275a2.85 2.85 0 0 0 2.822 2.835h14.112a2.85 2.85 0 0 0 2.823-2.835V305.55a2.89 2.89 0 0 0-2.823-2.836zm-7.056 14.11c-3.117 0-5.644-2.539-5.644-5.67 0-3.133 2.527-5.672 5.644-5.672 3.118 0 5.645 2.54 5.645 5.671a5.678 5.678 0 0 1-1.651 4.012 5.625 5.625 0 0 1-3.994 1.66zM391.496 302.647H326.85a2.85 2.85 0 0 0-2.823 2.835v11.275a2.85 2.85 0 0 0 2.823 2.836h64.646a2.85 2.85 0 0 0 2.822-2.836v-11.275a2.89 2.89 0 0 0-2.822-2.835zm-49.123 3.51h19.085a1.01 1.01 0 0 1 1.008 1.013 1.01 1.01 0 0 1-1.008 1.013h-19.085a1.01 1.01 0 0 1-1.008-1.013c0-.56.451-1.013 1.008-1.013zm-9.744 10.6c-3.118 0-5.645-2.539-5.645-5.671s2.527-5.671 5.645-5.671c3.117 0 5.645 2.539 5.645 5.67a5.678 5.678 0 0 1-1.652 4.013 5.625 5.625 0 0 1-3.993 1.659zm41.462-.675h-31.785a1.01 1.01 0 0 1-1.008-1.013c0-.56.45-1.013 1.008-1.013h31.785a1.01 1.01 0 0 1 1.008 1.013 1.01 1.01 0 0 1-1.008 1.013zm8.467-3.983h-40.185a1.01 1.01 0 0 1-1.008-1.013c0-.56.451-1.013 1.008-1.013h40.185a1.01 1.01 0 0 1 1.008 1.013 1.01 1.01 0 0 1-1.008 1.013z"/>
                    <path d="M406.078 312.436l-1.41-1.35-.538.472 1.948 1.89 3.965-3.982-.537-.473z"/>
                    <path fill-rule="nonzero" d="M414.142 322.766H400.03a2.85 2.85 0 0 0-2.822 2.835v11.275a2.85 2.85 0 0 0 2.822 2.836h14.112a2.85 2.85 0 0 0 2.823-2.836v-11.275a2.89 2.89 0 0 0-2.823-2.835zm-7.056 14.11c-3.117 0-5.644-2.539-5.644-5.671s2.527-5.671 5.644-5.671c3.118 0 5.645 2.539 5.645 5.671a5.678 5.678 0 0 1-1.651 4.012 5.625 5.625 0 0 1-3.994 1.66zM391.496 322.698H326.85a2.85 2.85 0 0 0-2.823 2.836v11.275a2.85 2.85 0 0 0 2.823 2.835h64.646a2.85 2.85 0 0 0 2.822-2.835v-11.275a2.842 2.842 0 0 0-2.822-2.836zm-49.123 3.511h19.085a1.01 1.01 0 0 1 1.008 1.013 1.01 1.01 0 0 1-1.008 1.012h-19.085a1.037 1.037 0 0 1-1.008-1.012.995.995 0 0 1 .289-.723.985.985 0 0 1 .719-.29zm-9.744 10.6c-3.118 0-5.645-2.54-5.645-5.671 0-3.133 2.527-5.672 5.645-5.672 3.117 0 5.645 2.54 5.645 5.672a5.678 5.678 0 0 1-1.652 4.012 5.625 5.625 0 0 1-3.993 1.659zm41.462-.743h-31.785a1.01 1.01 0 0 1-1.008-1.013c0-.559.45-1.012 1.008-1.012h31.785c.55.014.994.459 1.008 1.012a.995.995 0 0 1-.289.723.985.985 0 0 1-.719.29zm8.467-3.916h-40.185a1.01 1.01 0 0 1-1.008-1.012c0-.56.451-1.013 1.008-1.013h40.185c.551.014.994.46 1.008 1.013a1.084 1.084 0 0 1-1.008 1.012z"/>
                    <path d="M406.078 332.488l-1.41-1.418-.538.473 1.948 1.958 3.965-3.984-.537-.54z"/>
                    <path fill-rule="nonzero" d="M414.142 342.817H400.03a2.85 2.85 0 0 0-2.822 2.836v11.275a2.85 2.85 0 0 0 2.822 2.835h14.112a2.85 2.85 0 0 0 2.823-2.835v-11.275a2.842 2.842 0 0 0-2.823-2.836zm-7.056 14.11c-3.117 0-5.644-2.538-5.644-5.67s2.527-5.671 5.644-5.671c3.118 0 5.645 2.539 5.645 5.67a5.678 5.678 0 0 1-1.651 4.013 5.625 5.625 0 0 1-3.994 1.659zM391.496 342.682H326.85a2.85 2.85 0 0 0-2.823 2.836v11.275a2.85 2.85 0 0 0 2.823 2.835h64.646a2.85 2.85 0 0 0 2.822-2.835v-11.275a2.89 2.89 0 0 0-2.822-2.836zm-49.123 3.511h19.085a1.01 1.01 0 0 1 1.008 1.013 1.01 1.01 0 0 1-1.008 1.013h-19.085a1.01 1.01 0 0 1-1.008-1.013c0-.56.451-1.013 1.008-1.013zm-9.744 10.6c-3.118 0-5.645-2.54-5.645-5.671 0-3.132 2.527-5.671 5.645-5.671 3.117 0 5.645 2.539 5.645 5.67a5.678 5.678 0 0 1-1.652 4.013 5.625 5.625 0 0 1-3.993 1.659zm41.462-.675h-31.785a1.01 1.01 0 0 1-1.008-1.013c0-.56.45-1.013 1.008-1.013h31.785a1.01 1.01 0 0 1 1.008 1.013 1.01 1.01 0 0 1-1.008 1.013zm8.467-3.984h-40.185a1.01 1.01 0 0 1-1.008-1.012c0-.56.451-1.013 1.008-1.013h40.185a1.01 1.01 0 0 1 1.008 1.013 1.01 1.01 0 0 1-1.008 1.012z"/>
                    <path d="M406.078 352.54l-1.41-1.418-.538.472 1.948 1.89 3.965-3.983-.537-.472z"/>
                </g>
            </g>
        </g>
    </g>
</svg>
